[
    {
        "request_id": "afb460f2-3d32-4823-a325-f8b64c5ff607",
        "metadata": {
            "status": "complete",
            "time_created": "2023-01-14T14:54:51Z",
            "time_completed": "2023-01-14T14:56:50Z",
            "metrics_total": 3,
            "metrics_done": 3,
            "details_total": 42,
            "details_done": 42,
            "results_new": 84
        },
        "initial_request": {
            "from_loc": "BDG",
            "to_loc": "GLC",
            "from_time": "0000",
            "to_time": "1300",
            "from_date": "2022-12-01",
            "to_date": "2022-12-01",
            "tolerance": [
                1,
                5,
                10
            ]
        },
        "details": {
            "202212018956545": {
                "rid": 202212018956545,
                "from": {
                    "station": "BDG",
                    "sched_depart": "2022-12-01 08:22:00 +0000 UTC",
                    "sched_arrival": "2022-12-01 08:22:00 +0000 UTC",
                    "actual_depart": "2022-12-01 08:24:00 +0000 UTC",
                    "actual_arrival": "2022-12-01 08:24:00 +0000 UTC",
                    "delay": 2,
                    "delay_valid": true,
                    "late_cancel_reason": 0
                },
                "to": {
                    "station": "GLC",
                    "sched_depart": "2022-12-01 08:28:00 +0000 UTC",
                    "sched_arrival": "2022-12-01 08:27:00 +0000 UTC",
                    "actual_depart": "2022-12-01 08:30:00 +0000 UTC",
                    "actual_arrival": "2022-12-01 08:29:00 +0000 UTC",
                    "delay": 2,
                    "delay_valid": true,
                    "late_cancel_reason": 0
                }
            },
            "202212018958164": {
                "rid": 202212018958164,
                "from": {
                    "station": "BDG",
                    "sched_depart": "2022-12-01 06:18:00 +0000 UTC",
                    "sched_arrival": "2022-12-01 06:18:00 +0000 UTC",
                    "actual_depart": "2022-12-01 06:18:00 +0000 UTC",
                    "actual_arrival": "2022-12-01 06:18:00 +0000 UTC",
                    "delay": 0,
                    "delay_valid": true,
                    "late_cancel_reason": 0
                },
                "to": {
                    "station": "GLC",
                    "sched_depart": "2022-12-01 06:23:00 +0000 UTC",
                    "sched_arrival": "2022-12-01 06:22:00 +0000 UTC",
                    "actual_depart": "2022-12-01 06:24:00 +0000 UTC",
                    "actual_arrival": "2022-12-01 06:23:00 +0000 UTC",
                    "delay": 1,
                    "delay_valid": true,
                    "late_cancel_reason": 0
                }
            },
            "202212018958166": {
                "rid": 202212018958166,
                "from": {
                    "station": "BDG",
                    "sched_depart": "2022-12-01 06:48:00 +0000 UTC",
                    "sched_arrival": "2022-12-01 06:48:00 +0000 UTC",
                    "actual_depart": "2022-12-01 06:48:00 +0000 UTC",
                    "actual_arrival": "2022-12-01 06:47:00 +0000 UTC",
                    "delay": 0,
                    "delay_valid": true,
                    "late_cancel_reason": 0
                },
                "to": {
                    "station": "GLC",
                    "sched_depart": "2022-12-01 06:55:00 +0000 UTC",
                    "sched_arrival": "2022-12-01 06:53:00 +0000 UTC",
                    "actual_depart": "2022-12-01 06:54:00 +0000 UTC",
                    "actual_arrival": "2022-12-01 06:52:00 +0000 UTC",
                    "delay": -1,
                    "delay_valid": true,
                    "late_cancel_reason": 0
                }
            },
            "202212018958169": {
                "rid": 202212018958169,
                "from": {
                    "station": "BDG",
                    "sched_depart": "2022-12-01 07:20:00 +0000 UTC",
                    "sched_arrival": "2022-12-01 07:20:00 +0000 UTC",
                    "actual_depart": "2022-12-01 07:21:00 +0000 UTC",
                    "actual_arrival": "2022-12-01 07:21:00 +0000 UTC",
                    "delay": 1,
                    "delay_valid": true,
                    "late_cancel_reason": 0
                },
                "to": {
                    "station": "GLC",
                    "sched_depart": "2022-12-01 07:25:00 +0000 UTC",
                    "sched_arrival": "2022-12-01 07:25:00 +0000 UTC",
                    "actual_depart": "2022-12-01 07:26:00 +0000 UTC",
                    "actual_arrival": "2022-12-01 07:25:00 +0000 UTC",
                    "delay": 0,
                    "delay_valid": true,
                    "late_cancel_reason": 0
                }
            },
            "202212018958171": {
                "rid": 202212018958171,
                "from": {
                    "station": "BDG",
                    "sched_depart": "2022-12-01 07:48:00 +0000 UTC",
                    "sched_arrival": "2022-12-01 07:48:00 +0000 UTC",
                    "actual_depart": "2022-12-01 07:48:00 +0000 UTC",
                    "actual_arrival": "2022-12-01 07:48:00 +0000 UTC",
                    "delay": 0,
                    "delay_valid": true,
                    "late_cancel_reason": 0
                },
                "to": {
                    "station": "GLC",
                    "sched_depart": "2022-12-01 07:54:00 +0000 UTC",
                    "sched_arrival": "2022-12-01 07:53:00 +0000 UTC",
                    "actual_depart": "2022-12-01 07:54:00 +0000 UTC",
                    "actual_arrival": "2022-12-01 07:53:00 +0000 UTC",
                    "delay": 0,
                    "delay_valid": true,
                    "late_cancel_reason": 0
                }
            },
            "202212018958175": {
                "rid": 202212018958175,
                "from": {
                    "station": "BDG",
                    "sched_depart": "2022-12-01 08:16:00 +0000 UTC",
                    "sched_arrival": "2022-12-01 08:16:00 +0000 UTC",
                    "actual_depart": "2022-12-01 08:21:00 +0000 UTC",
                    "actual_arrival": "2022-12-01 08:20:00 +0000 UTC",
                    "delay": 5,
                    "delay_valid": true,
                    "late_cancel_reason": 0
                },
                "to": {
                    "station": "GLC",
                    "sched_depart": "2022-12-01 08:23:00 +0000 UTC",
                    "sched_arrival": "2022-12-01 08:22:00 +0000 UTC",
                    "actual_depart": "2022-12-01 08:27:00 +0000 UTC",
                    "actual_arrival": "2022-12-01 08:25:00 +0000 UTC",
                    "delay": 3,
                    "delay_valid": true,
                    "late_cancel_reason": 0
                }
            },
            "202212018958178": {
                "rid": 202212018958178,
                "from": {
                    "station": "BDG",
                    "sched_depart": "2022-12-01 08:48:00 +0000 UTC",
                    "sched_arrival": "2022-12-01 08:48:00 +0000 UTC",
                    "actual_depart": "2022-12-01 08:48:00 +0000 UTC",
                    "actual_arrival": "2022-12-01 08:47:00 +0000 UTC",
                    "delay": 0,
                    "delay_valid": true,
                    "late_cancel_reason": 0
                },
                "to": {
                    "station": "GLC",
                    "sched_depart": "2022-12-01 08:55:00 +0000 UTC",
                    "sched_arrival": "2022-12-01 08:53:00 +0000 UTC",
                    "actual_depart": "2022-12-01 08:55:00 +0000 UTC",
                    "actual_arrival": "2022-12-01 08:53:00 +0000 UTC",
                    "delay": 0,
                    "delay_valid": true,
                    "late_cancel_reason": 0
                }
            },
            "202212018958182": {
                "rid": 202212018958182,
                "from": {
                    "station": "BDG",
                    "sched_depart": "2022-12-01 09:20:00 +0000 UTC",
                    "sched_arrival": "2022-12-01 09:20:00 +0000 UTC",
                    "actual_depart": "2022-12-01 09:20:00 +0000 UTC",
                    "actual_arrival": "2022-12-01 09:19:00 +0000 UTC",
                    "delay": 0,
                    "delay_valid": true,
                    "late_cancel_reason": 0
                },
                "to": {
                    "station": "GLC",
                    "sched_depart": "2022-12-01 09:25:00 +0000 UTC",
                    "sched_arrival": "2022-12-01 09:25:00 +0000 UTC",
                    "actual_depart": "2022-12-01 09:26:00 +0000 UTC",
                    "actual_arrival": "2022-12-01 09:25:00 +0000 UTC",
                    "delay": 0,
                    "delay_valid": true,
                    "late_cancel_reason": 0
                }
            },
            "202212018958185": {
                "rid": 202212018958185,
                "from": {
                    "station": "BDG",
                    "sched_depart": "2022-12-01 09:48:00 +0000 UTC",
                    "sched_arrival": "2022-12-01 09:48:00 +0000 UTC",
                    "actual_depart": "2022-12-01 09:49:00 +0000 UTC",
                    "actual_arrival": "2022-12-01 09:48:00 +0000 UTC",
                    "delay": 1,
                    "delay_valid": true,
                    "late_cancel_reason": 0
                },
                "to": {
                    "station": "GLC",
                    "sched_depart": "2022-12-01 09:55:00 +0000 UTC",
                    "sched_arrival": "2022-12-01 09:53:00 +0000 UTC",
                    "actual_depart": "2022-12-01 09:55:00 +0000 UTC",
                    "actual_arrival": "2022-12-01 09:54:00 +0000 UTC",
                    "delay": 1,
                    "delay_valid": true,
                    "late_cancel_reason": 0
                }
            },
            "202212018958187": {
                "rid": 202212018958187,
                "from": {
                    "station": "BDG",
                    "sched_depart": "2022-12-01 10:18:00 +0000 UTC",
                    "sched_arrival": "2022-12-01 10:18:00 +0000 UTC",
                    "actual_depart": "2022-12-01 10:18:00 +0000 UTC",
                    "actual_arrival": "2022-12-01 10:17:00 +0000 UTC",
                    "delay": 0,
                    "delay_valid": true,
                    "late_cancel_reason": 0
                },
                "to": {
                    "station": "GLC",
                    "sched_depart": "2022-12-01 10:25:00 +0000 UTC",
                    "sched_arrival": "2022-12-01 10:23:00 +0000 UTC",
                    "actual_depart": "2022-12-01 10:24:00 +0000 UTC",
                    "actual_arrival": "2022-12-01 10:22:00 +0000 UTC",
                    "delay": -1,
                    "delay_valid": true,
                    "late_cancel_reason": 0
                }
            },
            "202212018958190": {
                "rid": 202212018958190,
                "from": {
                    "station": "BDG",
                    "sched_depart": "2022-12-01 10:49:00 +0000 UTC",
                    "sched_arrival": "2022-12-01 10:49:00 +0000 UTC",
                    "actual_depart": "2022-12-01 10:51:00 +0000 UTC",
                    "actual_arrival": "2022-12-01 10:50:00 +0000 UTC",
                    "delay": 2,
                    "delay_valid": true,
                    "late_cancel_reason": 0
                },
                "to": {
                    "station": "GLC",
                    "sched_depart": "2022-12-01 10:55:00 +0000 UTC",
                    "sched_arrival": "2022-12-01 10:54:00 +0000 UTC",
                    "actual_depart": "2022-12-01 10:56:00 +0000 UTC",
                    "actual_arrival": "2022-12-01 10:55:00 +0000 UTC",
                    "delay": 1,
                    "delay_valid": true,
                    "late_cancel_reason": 0
                }
            },
            "202212018958195": {
                "rid": 202212018958195,
                "from": {
                    "station": "BDG",
                    "sched_depart": "2022-12-01 11:18:00 +0000 UTC",
                    "sched_arrival": "2022-12-01 11:18:00 +0000 UTC",
                    "actual_depart": "2022-12-01 11:17:00 +0000 UTC",
                    "actual_arrival": "2022-12-01 11:17:00 +0000 UTC",
                    "delay": -1,
                    "delay_valid": true,
                    "late_cancel_reason": 0
                },
                "to": {
                    "station": "GLC",
                    "sched_depart": "2022-12-01 11:25:00 +0000 UTC",
                    "sched_arrival": "2022-12-01 11:23:00 +0000 UTC",
                    "actual_depart": "2022-12-01 11:24:00 +0000 UTC",
                    "actual_arrival": "2022-12-01 11:22:00 +0000 UTC",
                    "delay": -1,
                    "delay_valid": true,
                    "late_cancel_reason": 0
                }
            },
            "202212018958197": {
                "rid": 202212018958197,
                "from": {
                    "station": "BDG",
                    "sched_depart": "2022-12-01 11:46:00 +0000 UTC",
                    "sched_arrival": "2022-12-01 11:46:00 +0000 UTC",
                    "actual_depart": "2022-12-01 11:49:00 +0000 UTC",
                    "actual_arrival": "2022-12-01 11:48:00 +0000 UTC",
                    "delay": 3,
                    "delay_valid": true,
                    "late_cancel_reason": 0
                },
                "to": {
                    "station": "GLC",
                    "sched_depart": "2022-12-01 11:53:00 +0000 UTC",
                    "sched_arrival": "2022-12-01 11:51:00 +0000 UTC",
                    "actual_depart": "2022-12-01 11:54:00 +0000 UTC",
                    "actual_arrival": "2022-12-01 11:54:00 +0000 UTC",
                    "delay": 3,
                    "delay_valid": true,
                    "late_cancel_reason": 0
                }
            },
            "202212018958200": {
                "rid": 202212018958200,
                "from": {
                    "station": "BDG",
                    "sched_depart": "2022-12-01 12:19:00 +0000 UTC",
                    "sched_arrival": "2022-12-01 12:19:00 +0000 UTC",
                    "actual_depart": "2022-12-01 12:21:00 +0000 UTC",
                    "actual_arrival": "2022-12-01 12:20:00 +0000 UTC",
                    "delay": 2,
                    "delay_valid": true,
                    "late_cancel_reason": 0
                },
                "to": {
                    "station": "GLC",
                    "sched_depart": "2022-12-01 12:25:00 +0000 UTC",
                    "sched_arrival": "2022-12-01 12:24:00 +0000 UTC",
                    "actual_depart": "2022-12-01 12:26:00 +0000 UTC",
                    "actual_arrival": "2022-12-01 12:25:00 +0000 UTC",
                    "delay": 1,
                    "delay_valid": true,
                    "late_cancel_reason": 0
                }
            },
            "202212018958202": {
                "rid": 202212018958202,
                "from": {
                    "station": "BDG",
                    "sched_depart": "2022-12-01 12:48:00 +0000 UTC",
                    "sched_arrival": "2022-12-01 12:48:00 +0000 UTC",
                    "actual_depart": "2022-12-01 12:48:00 +0000 UTC",
                    "actual_arrival": "2022-12-01 12:48:00 +0000 UTC",
                    "delay": 0,
                    "delay_valid": true,
                    "late_cancel_reason": 0
                },
                "to": {
                    "station": "GLC",
                    "sched_depart": "2022-12-01 12:55:00 +0000 UTC",
                    "sched_arrival": "2022-12-01 12:53:00 +0000 UTC",
                    "actual_depart": "2022-12-01 12:55:00 +0000 UTC",
                    "actual_arrival": "2022-12-01 12:53:00 +0000 UTC",
                    "delay": 0,
                    "delay_valid": true,
                    "late_cancel_reason": 0
                }
            },
            "202212018959237": {
                "rid": 202212018959237,
                "from": {
                    "station": "BDG",
                    "sched_depart": "2022-12-01 06:36:00 +0000 UTC",
                    "sched_arrival": "2022-12-01 06:36:00 +0000 UTC",
                    "actual_depart": "2022-12-01 06:36:00 +0000 UTC",
                    "actual_arrival": "2022-12-01 06:35:00 +0000 UTC",
                    "delay": 0,
                    "delay_valid": true,
                    "late_cancel_reason": 0
                },
                "to": {
                    "station": "GLC",
                    "sched_depart": "2022-12-01 06:46:00 +0000 UTC",
                    "sched_arrival": "2022-12-01 06:41:00 +0000 UTC",
                    "actual_depart": "2022-12-01 06:46:00 +0000 UTC",
                    "actual_arrival": "2022-12-01 06:41:00 +0000 UTC",
                    "delay": 0,
                    "delay_valid": true,
                    "late_cancel_reason": 0
                }
            },
            "202212018959238": {
                "rid": 202212018959238,
                "from": {
                    "station": "BDG",
                    "sched_depart": "2022-12-01 12:38:00 +0000 UTC",
                    "sched_arrival": "2022-12-01 12:37:00 +0000 UTC",
                    "actual_depart": "2022-12-01 12:38:00 +0000 UTC",
                    "actual_arrival": "2022-12-01 12:38:00 +0000 UTC",
                    "delay": 0,
                    "delay_valid": true,
                    "late_cancel_reason": 0
                },
                "to": {
                    "station": "GLC",
                    "sched_depart": "2022-12-01 12:47:00 +0000 UTC",
                    "sched_arrival": "2022-12-01 12:43:00 +0000 UTC",
                    "actual_depart": "2022-12-01 12:47:00 +0000 UTC",
                    "actual_arrival": "2022-12-01 12:43:00 +0000 UTC",
                    "delay": 0,
                    "delay_valid": true,
                    "late_cancel_reason": 0
                }
            },
            "202212018959247": {
                "rid": 202212018959247,
                "from": {
                    "station": "BDG",
                    "sched_depart": "2022-12-01 07:06:00 +0000 UTC",
                    "sched_arrival": "2022-12-01 07:06:00 +0000 UTC",
                    "actual_depart": "2022-12-01 07:09:00 +0000 UTC",
                    "actual_arrival": "2022-12-01 07:08:00 +0000 UTC",
                    "delay": 3,
                    "delay_valid": true,
                    "late_cancel_reason": 0
                },
                "to": {
                    "station": "GLC",
                    "sched_depart": "2022-12-01 07:16:00 +0000 UTC",
                    "sched_arrival": "2022-12-01 07:11:00 +0000 UTC",
                    "actual_depart": "2022-12-01 07:16:00 +0000 UTC",
                    "actual_arrival": "2022-12-01 07:13:00 +0000 UTC",
                    "delay": 2,
                    "delay_valid": true,
                    "late_cancel_reason": 0
                }
            },
            "202212018959256": {
                "rid": 202212018959256,
                "from": {
                    "station": "BDG",
                    "sched_depart": "2022-12-01 07:37:00 +0000 UTC",
                    "sched_arrival": "2022-12-01 07:36:00 +0000 UTC",
                    "actual_depart": "2022-12-01 07:40:00 +0000 UTC",
                    "actual_arrival": "2022-12-01 07:39:00 +0000 UTC",
                    "delay": 3,
                    "delay_valid": true,
                    "late_cancel_reason": 0
                },
                "to": {
                    "station": "GLC",
                    "sched_depart": "2022-12-01 07:46:00 +0000 UTC",
                    "sched_arrival": "2022-12-01 07:42:00 +0000 UTC",
                    "actual_depart": "2022-12-01 07:46:00 +0000 UTC",
                    "actual_arrival": "2022-12-01 07:45:00 +0000 UTC",
                    "delay": 3,
                    "delay_valid": true,
                    "late_cancel_reason": 0
                }
            },
            "202212018959268": {
                "rid": 202212018959268,
                "from": {
                    "station": "BDG",
                    "sched_depart": "2022-12-01 08:06:00 +0000 UTC",
                    "sched_arrival": "2022-12-01 08:06:00 +0000 UTC",
                    "actual_depart": "2022-12-01 08:06:00 +0000 UTC",
                    "actual_arrival": "2022-12-01 08:05:00 +0000 UTC",
                    "delay": 0,
                    "delay_valid": true,
                    "late_cancel_reason": 0
                },
                "to": {
                    "station": "GLC",
                    "sched_depart": "2022-12-01 08:16:00 +0000 UTC",
                    "sched_arrival": "2022-12-01 08:11:00 +0000 UTC",
                    "actual_depart": "2022-12-01 08:16:00 +0000 UTC",
                    "actual_arrival": "2022-12-01 08:11:00 +0000 UTC",
                    "delay": 0,
                    "delay_valid": true,
                    "late_cancel_reason": 0
                }
            },
            "202212018959282": {
                "rid": 202212018959282,
                "from": {
                    "station": "BDG",
                    "sched_depart": "2022-12-01 08:36:00 +0000 UTC",
                    "sched_arrival": "2022-12-01 08:36:00 +0000 UTC",
                    "actual_depart": "2022-12-01 08:38:00 +0000 UTC",
                    "actual_arrival": "2022-12-01 08:38:00 +0000 UTC",
                    "delay": 2,
                    "delay_valid": true,
                    "late_cancel_reason": 0
                },
                "to": {
                    "station": "GLC",
                    "sched_depart": "2022-12-01 08:44:00 +0000 UTC",
                    "sched_arrival": "2022-12-01 08:41:00 +0000 UTC",
                    "actual_depart": "2022-12-01 08:44:00 +0000 UTC",
                    "actual_arrival": "2022-12-01 08:43:00 +0000 UTC",
                    "delay": 2,
                    "delay_valid": true,
                    "late_cancel_reason": 0
                }
            },
            "202212018959288": {
                "rid": 202212018959288,
                "from": {
                    "station": "BDG",
                    "sched_depart": "2022-12-01 09:06:00 +0000 UTC",
                    "sched_arrival": "2022-12-01 09:06:00 +0000 UTC",
                    "actual_depart": "2022-12-01 09:05:00 +0000 UTC",
                    "actual_arrival": "2022-12-01 09:05:00 +0000 UTC",
                    "delay": -1,
                    "delay_valid": true,
                    "late_cancel_reason": 0
                },
                "to": {
                    "station": "GLC",
                    "sched_depart": "2022-12-01 09:17:00 +0000 UTC",
                    "sched_arrival": "2022-12-01 09:11:00 +0000 UTC",
                    "actual_depart": "2022-12-01 09:16:00 +0000 UTC",
                    "actual_arrival": "2022-12-01 09:10:00 +0000 UTC",
                    "delay": -1,
                    "delay_valid": true,
                    "late_cancel_reason": 0
                }
            },
            "202212018959299": {
                "rid": 202212018959299,
                "from": {
                    "station": "BDG",
                    "sched_depart": "2022-12-01 09:37:00 +0000 UTC",
                    "sched_arrival": "2022-12-01 09:37:00 +0000 UTC",
                    "actual_depart": "2022-12-01 09:38:00 +0000 UTC",
                    "actual_arrival": "2022-12-01 09:37:00 +0000 UTC",
                    "delay": 1,
                    "delay_valid": true,
                    "late_cancel_reason": 0
                },
                "to": {
                    "station": "GLC",
                    "sched_depart": "2022-12-01 09:46:00 +0000 UTC",
                    "sched_arrival": "2022-12-01 09:42:00 +0000 UTC",
                    "actual_depart": "2022-12-01 09:45:00 +0000 UTC",
                    "actual_arrival": "2022-12-01 09:42:00 +0000 UTC",
                    "delay": 0,
                    "delay_valid": true,
                    "late_cancel_reason": 0
                }
            },
            "202212018959308": {
                "rid": 202212018959308,
                "from": {
                    "station": "BDG",
                    "sched_depart": "2022-12-01 10:06:00 +0000 UTC",
                    "sched_arrival": "2022-12-01 10:06:00 +0000 UTC",
                    "actual_depart": "2022-12-01 10:07:00 +0000 UTC",
                    "actual_arrival": "2022-12-01 10:06:00 +0000 UTC",
                    "delay": 1,
                    "delay_valid": true,
                    "late_cancel_reason": 0
                },
                "to": {
                    "station": "GLC",
                    "sched_depart": "2022-12-01 10:17:00 +0000 UTC",
                    "sched_arrival": "2022-12-01 10:11:00 +0000 UTC",
                    "actual_depart": "2022-12-01 10:17:00 +0000 UTC",
                    "actual_arrival": "2022-12-01 10:11:00 +0000 UTC",
                    "delay": 0,
                    "delay_valid": true,
                    "late_cancel_reason": 0
                }
            },
            "202212018959314": {
                "rid": 202212018959314,
                "from": {
                    "station": "BDG",
                    "sched_depart": "2022-12-01 10:36:00 +0000 UTC",
                    "sched_arrival": "2022-12-01 10:36:00 +0000 UTC",
                    "actual_depart": "2022-12-01 10:35:00 +0000 UTC",
                    "actual_arrival": "2022-12-01 10:35:00 +0000 UTC",
                    "delay": -1,
                    "delay_valid": true,
                    "late_cancel_reason": 0
                },
                "to": {
                    "station": "GLC",
                    "sched_depart": "2022-12-01 10:47:00 +0000 UTC",
                    "sched_arrival": "2022-12-01 10:41:00 +0000 UTC",
                    "actual_depart": "2022-12-01 10:47:00 +0000 UTC",
                    "actual_arrival": "2022-12-01 10:41:00 +0000 UTC",
                    "delay": 0,
                    "delay_valid": true,
                    "late_cancel_reason": 0
                }
            },
            "202212018959326": {
                "rid": 202212018959326,
                "from": {
                    "station": "BDG",
                    "sched_depart": "2022-12-01 11:06:00 +0000 UTC",
                    "sched_arrival": "2022-12-01 11:05:00 +0000 UTC",
                    "actual_depart": "2022-12-01 11:06:00 +0000 UTC",
                    "actual_arrival": "2022-12-01 11:05:00 +0000 UTC",
                    "delay": 0,
                    "delay_valid": true,
                    "late_cancel_reason": 0
                },
                "to": {
                    "station": "GLC",
                    "sched_depart": "2022-12-01 11:16:00 +0000 UTC",
                    "sched_arrival": "2022-12-01 11:11:00 +0000 UTC",
                    "actual_depart": "2022-12-01 11:15:00 +0000 UTC",
                    "actual_arrival": "2022-12-01 11:11:00 +0000 UTC",
                    "delay": 0,
                    "delay_valid": true,
                    "late_cancel_reason": 0
                }
            },
            "202212018959337": {
                "rid": 202212018959337,
                "from": {
                    "station": "BDG",
                    "sched_depart": "2022-12-01 11:35:00 +0000 UTC",
                    "sched_arrival": "2022-12-01 11:35:00 +0000 UTC",
                    "actual_depart": "2022-12-01 11:35:00 +0000 UTC",
                    "actual_arrival": "2022-12-01 11:34:00 +0000 UTC",
                    "delay": 0,
                    "delay_valid": true,
                    "late_cancel_reason": 0
                },
                "to": {
                    "station": "GLC",
                    "sched_depart": "2022-12-01 11:47:00 +0000 UTC",
                    "sched_arrival": "2022-12-01 11:40:00 +0000 UTC",
                    "actual_depart": "2022-12-01 11:47:00 +0000 UTC",
                    "actual_arrival": "2022-12-01 11:40:00 +0000 UTC",
                    "delay": 0,
                    "delay_valid": true,
                    "late_cancel_reason": 0
                }
            },
            "202212018959346": {
                "rid": 202212018959346,
                "from": {
                    "station": "BDG",
                    "sched_depart": "2022-12-01 12:06:00 +0000 UTC",
                    "sched_arrival": "2022-12-01 12:06:00 +0000 UTC",
                    "actual_depart": "2022-12-01 12:06:00 +0000 UTC",
                    "actual_arrival": "2022-12-01 12:05:00 +0000 UTC",
                    "delay": 0,
                    "delay_valid": true,
                    "late_cancel_reason": 0
                },
                "to": {
                    "station": "GLC",
                    "sched_depart": "2022-12-01 12:17:00 +0000 UTC",
                    "sched_arrival": "2022-12-01 12:11:00 +0000 UTC",
                    "actual_depart": "2022-12-01 12:16:00 +0000 UTC",
                    "actual_arrival": "2022-12-01 12:11:00 +0000 UTC",
                    "delay": 0,
                    "delay_valid": true,
                    "late_cancel_reason": 0
                }
            },
            "202212018960156": {
                "rid": 202212018960156,
                "from": {
                    "station": "BDG",
                    "sched_depart": "2022-12-01 06:27:00 +0000 UTC",
                    "sched_arrival": "2022-12-01 06:27:00 +0000 UTC",
                    "actual_depart": "2022-12-01 06:27:00 +0000 UTC",
                    "actual_arrival": "2022-12-01 06:27:00 +0000 UTC",
                    "delay": 0,
                    "delay_valid": true,
                    "late_cancel_reason": 0
                },
                "to": {
                    "station": "GLC",
                    "sched_depart": "2022-12-01 06:34:00 +0000 UTC",
                    "sched_arrival": "2022-12-01 06:32:00 +0000 UTC",
                    "actual_depart": "2022-12-01 06:34:00 +0000 UTC",
                    "actual_arrival": "2022-12-01 06:32:00 +0000 UTC",
                    "delay": 0,
                    "delay_valid": true,
                    "late_cancel_reason": 0
                }
            },
            "202212018960158": {
                "rid": 202212018960158,
                "from": {
                    "station": "BDG",
                    "sched_depart": "2022-12-01 06:57:00 +0000 UTC",
                    "sched_arrival": "2022-12-01 06:57:00 +0000 UTC",
                    "actual_depart": "2022-12-01 07:02:00 +0000 UTC",
                    "actual_arrival": "2022-12-01 07:02:00 +0000 UTC",
                    "delay": 5,
                    "delay_valid": true,
                    "late_cancel_reason": 0
                },
                "to": {
                    "station": "GLC",
                    "sched_depart": "2022-12-01 07:04:00 +0000 UTC",
                    "sched_arrival": "2022-12-01 07:02:00 +0000 UTC",
                    "actual_depart": "2022-12-01 07:08:00 +0000 UTC",
                    "actual_arrival": "2022-12-01 07:07:00 +0000 UTC",
                    "delay": 5,
                    "delay_valid": true,
                    "late_cancel_reason": 0
                }
            },
            "202212018960160": {
                "rid": 202212018960160,
                "from": {
                    "station": "BDG",
                    "sched_depart": "2022-12-01 07:26:00 +0000 UTC",
                    "sched_arrival": "2022-12-01 07:26:00 +0000 UTC",
                    "actual_depart": "2022-12-01 07:26:00 +0000 UTC",
                    "actual_arrival": "2022-12-01 07:26:00 +0000 UTC",
                    "delay": 0,
                    "delay_valid": true,
                    "late_cancel_reason": 0
                },
                "to": {
                    "station": "GLC",
                    "sched_depart": "2022-12-01 07:33:00 +0000 UTC",
                    "sched_arrival": "2022-12-01 07:31:00 +0000 UTC",
                    "actual_depart": "2022-12-01 07:33:00 +0000 UTC",
                    "actual_arrival": "2022-12-01 07:31:00 +0000 UTC",
                    "delay": 0,
                    "delay_valid": true,
                    "late_cancel_reason": 0
                }
            },
            "202212018960163": {
                "rid": 202212018960163,
                "from": {
                    "station": "BDG",
                    "sched_depart": "2022-12-01 07:58:00 +0000 UTC",
                    "sched_arrival": "2022-12-01 07:58:00 +0000 UTC",
                    "actual_depart": "2022-12-01 08:01:00 +0000 UTC",
                    "actual_arrival": "2022-12-01 08:00:00 +0000 UTC",
                    "delay": 3,
                    "delay_valid": true,
                    "late_cancel_reason": 0
                },
                "to": {
                    "station": "GLC",
                    "sched_depart": "2022-12-01 08:04:00 +0000 UTC",
                    "sched_arrival": "2022-12-01 08:03:00 +0000 UTC",
                    "actual_depart": "2022-12-01 08:06:00 +0000 UTC",
                    "actual_arrival": "2022-12-01 08:05:00 +0000 UTC",
                    "delay": 2,
                    "delay_valid": true,
                    "late_cancel_reason": 0
                }
            },
            "202212018960166": {
                "rid": 202212018960166,
                "from": {
                    "station": "BDG",
                    "sched_depart": "2022-12-01 08:27:00 +0000 UTC",
                    "sched_arrival": "2022-12-01 08:27:00 +0000 UTC",
                    "actual_depart": "2022-12-01 08:28:00 +0000 UTC",
                    "actual_arrival": "2022-12-01 08:28:00 +0000 UTC",
                    "delay": 1,
                    "delay_valid": true,
                    "late_cancel_reason": 0
                },
                "to": {
                    "station": "GLC",
                    "sched_depart": "2022-12-01 08:34:00 +0000 UTC",
                    "sched_arrival": "2022-12-01 08:32:00 +0000 UTC",
                    "actual_depart": "2022-12-01 08:35:00 +0000 UTC",
                    "actual_arrival": "2022-12-01 08:33:00 +0000 UTC",
                    "delay": 1,
                    "delay_valid": true,
                    "late_cancel_reason": 0
                }
            },
            "202212018960168": {
                "rid": 202212018960168,
                "from": {
                    "station": "BDG",
                    "sched_depart": "2022-12-01 08:57:00 +0000 UTC",
                    "sched_arrival": "2022-12-01 08:57:00 +0000 UTC",
                    "actual_depart": "2022-12-01 08:57:00 +0000 UTC",
                    "actual_arrival": "2022-12-01 08:56:00 +0000 UTC",
                    "delay": 0,
                    "delay_valid": true,
                    "late_cancel_reason": 0
                },
                "to": {
                    "station": "GLC",
                    "sched_depart": "2022-12-01 09:04:00 +0000 UTC",
                    "sched_arrival": "2022-12-01 09:02:00 +0000 UTC",
                    "actual_depart": "2022-12-01 09:03:00 +0000 UTC",
                    "actual_arrival": "2022-12-01 09:01:00 +0000 UTC",
                    "delay": -1,
                    "delay_valid": true,
                    "late_cancel_reason": 0
                }
            },
            "202212018960171": {
                "rid": 202212018960171,
                "from": {
                    "station": "BDG",
                    "sched_depart": "2022-12-01 09:28:00 +0000 UTC",
                    "sched_arrival": "2022-12-01 09:28:00 +0000 UTC",
                    "actual_depart": "2022-12-01 09:28:00 +0000 UTC",
                    "actual_arrival": "2022-12-01 09:27:00 +0000 UTC",
                    "delay": 0,
                    "delay_valid": true,
                    "late_cancel_reason": 0
                },
                "to": {
                    "station": "GLC",
                    "sched_depart": "2022-12-01 09:35:00 +0000 UTC",
                    "sched_arrival": "2022-12-01 09:33:00 +0000 UTC",
                    "actual_depart": "2022-12-01 09:35:00 +0000 UTC",
                    "actual_arrival": "2022-12-01 09:33:00 +0000 UTC",
                    "delay": 0,
                    "delay_valid": true,
                    "late_cancel_reason": 0
                }
            },
            "202212018960173": {
                "rid": 202212018960173,
                "from": {
                    "station": "BDG",
                    "sched_depart": "2022-12-01 09:57:00 +0000 UTC",
                    "sched_arrival": "2022-12-01 09:57:00 +0000 UTC",
                    "actual_depart": "2022-12-01 09:58:00 +0000 UTC",
                    "actual_arrival": "2022-12-01 09:57:00 +0000 UTC",
                    "delay": 1,
                    "delay_valid": true,
                    "late_cancel_reason": 0
                },
                "to": {
                    "station": "GLC",
                    "sched_depart": "2022-12-01 10:04:00 +0000 UTC",
                    "sched_arrival": "2022-12-01 10:02:00 +0000 UTC",
                    "actual_depart": "2022-12-01 10:03:00 +0000 UTC",
                    "actual_arrival": "2022-12-01 10:02:00 +0000 UTC",
                    "delay": 0,
                    "delay_valid": true,
                    "late_cancel_reason": 0
                }
            },
            "202212018960176": {
                "rid": 202212018960176,
                "from": {
                    "station": "BDG",
                    "sched_depart": "2022-12-01 10:27:00 +0000 UTC",
                    "sched_arrival": "2022-12-01 10:27:00 +0000 UTC",
                    "actual_depart": "2022-12-01 10:27:00 +0000 UTC",
                    "actual_arrival": "2022-12-01 10:26:00 +0000 UTC",
                    "delay": 0,
                    "delay_valid": true,
                    "late_cancel_reason": 0
                },
                "to": {
                    "station": "GLC",
                    "sched_depart": "2022-12-01 10:34:00 +0000 UTC",
                    "sched_arrival": "2022-12-01 10:32:00 +0000 UTC",
                    "actual_depart": "2022-12-01 10:33:00 +0000 UTC",
                    "actual_arrival": "2022-12-01 10:31:00 +0000 UTC",
                    "delay": -1,
                    "delay_valid": true,
                    "late_cancel_reason": 0
                }
            },
            "202212018960178": {
                "rid": 202212018960178,
                "from": {
                    "station": "BDG",
                    "sched_depart": "2022-12-01 10:57:00 +0000 UTC",
                    "sched_arrival": "2022-12-01 10:57:00 +0000 UTC",
                    "actual_depart": "2022-12-01 10:59:00 +0000 UTC",
                    "actual_arrival": "2022-12-01 10:58:00 +0000 UTC",
                    "delay": 2,
                    "delay_valid": true,
                    "late_cancel_reason": 0
                },
                "to": {
                    "station": "GLC",
                    "sched_depart": "2022-12-01 11:04:00 +0000 UTC",
                    "sched_arrival": "2022-12-01 11:02:00 +0000 UTC",
                    "actual_depart": "2022-12-01 11:04:00 +0000 UTC",
                    "actual_arrival": "2022-12-01 11:03:00 +0000 UTC",
                    "delay": 1,
                    "delay_valid": true,
                    "late_cancel_reason": 0
                }
            },
            "202212018960180": {
                "rid": 202212018960180,
                "from": {
                    "station": "BDG",
                    "sched_depart": "2022-12-01 11:27:00 +0000 UTC",
                    "sched_arrival": "2022-12-01 11:27:00 +0000 UTC",
                    "actual_depart": "0001-01-01 00:00:00 +0000 UTC",
                    "actual_arrival": "0001-01-01 00:00:00 +0000 UTC",
                    "delay": 0,
                    "delay_valid": false,
                    "late_cancel_reason": 574
                },
                "to": {
                    "station": "GLC",
                    "sched_depart": "2022-12-01 11:34:00 +0000 UTC",
                    "sched_arrival": "2022-12-01 11:32:00 +0000 UTC",
                    "actual_depart": "0001-01-01 00:00:00 +0000 UTC",
                    "actual_arrival": "0001-01-01 00:00:00 +0000 UTC",
                    "delay": 0,
                    "delay_valid": false,
                    "late_cancel_reason": 574
                }
            },
            "202212018960181": {
                "rid": 202212018960181,
                "from": {
                    "station": "BDG",
                    "sched_depart": "2022-12-01 11:58:00 +0000 UTC",
                    "sched_arrival": "2022-12-01 11:58:00 +0000 UTC",
                    "actual_depart": "2022-12-01 11:59:00 +0000 UTC",
                    "actual_arrival": "2022-12-01 11:58:00 +0000 UTC",
                    "delay": 1,
                    "delay_valid": true,
                    "late_cancel_reason": 0
                },
                "to": {
                    "station": "GLC",
                    "sched_depart": "2022-12-01 12:04:00 +0000 UTC",
                    "sched_arrival": "2022-12-01 12:03:00 +0000 UTC",
                    "actual_depart": "2022-12-01 12:04:00 +0000 UTC",
                    "actual_arrival": "2022-12-01 12:03:00 +0000 UTC",
                    "delay": 0,
                    "delay_valid": true,
                    "late_cancel_reason": 0
                }
            },
            "202212018960183": {
                "rid": 202212018960183,
                "from": {
                    "station": "BDG",
                    "sched_depart": "2022-12-01 12:27:00 +0000 UTC",
                    "sched_arrival": "2022-12-01 12:27:00 +0000 UTC",
                    "actual_depart": "2022-12-01 12:27:00 +0000 UTC",
                    "actual_arrival": "2022-12-01 12:27:00 +0000 UTC",
                    "delay": 0,
                    "delay_valid": true,
                    "late_cancel_reason": 0
                },
                "to": {
                    "station": "GLC",
                    "sched_depart": "2022-12-01 12:34:00 +0000 UTC",
                    "sched_arrival": "2022-12-01 12:32:00 +0000 UTC",
                    "actual_depart": "2022-12-01 12:33:00 +0000 UTC",
                    "actual_arrival": "2022-12-01 12:32:00 +0000 UTC",
                    "delay": 0,
                    "delay_valid": true,
                    "late_cancel_reason": 0
                }
            },
            "202212018960184": {
                "rid": 202212018960184,
                "from": {
                    "station": "BDG",
                    "sched_depart": "2022-12-01 12:57:00 +0000 UTC",
                    "sched_arrival": "2022-12-01 12:57:00 +0000 UTC",
                    "actual_depart": "2022-12-01 12:56:00 +0000 UTC",
                    "actual_arrival": "2022-12-01 12:56:00 +0000 UTC",
                    "delay": -1,
                    "delay_valid": true,
                    "late_cancel_reason": 0
                },
                "to": {
                    "station": "GLC",
                    "sched_depart": "2022-12-01 13:04:00 +0000 UTC",
                    "sched_arrival": "2022-12-01 13:02:00 +0000 UTC",
                    "actual_depart": "2022-12-01 13:04:00 +0000 UTC",
                    "actual_arrival": "2022-12-01 13:01:00 +0000 UTC",
                    "delay": -1,
                    "delay_valid": true,
                    "late_cancel_reason": 0
                }
            }
        }
    }
]