{
  "serviceAttributesDetails": {
      "date_of_service": "2021-11-15",
      "toc_code": "SR",
      "rid": "202111158791435",
      "locations": [
          {
              "location": "GLQ",
              "gbtt_ptd": "0625",
              "gbtt_pta": "",
              "actual_td": "0624",
              "actual_ta": "",
              "late_canc_reason": ""
          },
          {
              "location": "SPR",
              "gbtt_ptd": "0631",
              "gbtt_pta": "0631",
              "actual_td": "0630",
              "actual_ta": "0629",
              "late_canc_reason": ""
          },
          {
              "location": "RRN",
              "gbtt_ptd": "0637",
              "gbtt_pta": "0636",
              "actual_td": "",
              "actual_ta": "",
              "late_canc_reason": ""
          },
          {
              "location": "SPS",
              "gbtt_ptd": "0639",
              "gbtt_pta": "0639",
              "actual_td": "",
              "actual_ta": "0639",
              "late_canc_reason": ""
          },
          {
              "location": "GRH",
              "gbtt_ptd": "0643",
              "gbtt_pta": "0643",
              "actual_td": "0643",
              "actual_ta": "",
              "late_canc_reason": ""
          },
          {
              "location": "GRL",
              "gbtt_ptd": "0649",
              "gbtt_pta": "0649",
              "actual_td": "",
              "actual_ta": "0650",
              "late_canc_reason": ""
          },
          {
              "location": "CUB",
              "gbtt_ptd": "0652",
              "gbtt_pta": "0652",
              "actual_td": "0654",
              "actual_ta": "0653",
              "late_canc_reason": ""
          },
          {
              "location": "CMO",
              "gbtt_ptd": "0703",
              "gbtt_pta": "0703",
              "actual_td": "0706",
              "actual_ta": "0705",
              "late_canc_reason": ""
          },
          {
              "location": "FKG",
              "gbtt_ptd": "0706",
              "gbtt_pta": "0705",
              "actual_td": "0709",
              "actual_ta": "0708",
              "late_canc_reason": ""
          },
          {
              "location": "PMT",
              "gbtt_ptd": "0713",
              "gbtt_pta": "0713",
              "actual_td": "0714",
              "actual_ta": "0713",
              "late_canc_reason": ""
          },
          {
              "location": "LIN",
              "gbtt_ptd": "0719",
              "gbtt_pta": "0718",
              "actual_td": "0720",
              "actual_ta": "0719",
              "late_canc_reason": ""
          },
          {
              "location": "EDP",
              "gbtt_ptd": "0729",
              "gbtt_pta": "0729",
              "actual_td": "0730",
              "actual_ta": "0730",
              "late_canc_reason": ""
          },
          {
              "location": "HYM",
              "gbtt_ptd": "0735",
              "gbtt_pta": "0734",
              "actual_td": "0736",
              "actual_ta": "0735",
              "late_canc_reason": ""
          },
          {
              "location": "EDB",
              "gbtt_ptd": "",
              "gbtt_pta": "0739",
              "actual_td": "",
              "actual_ta": "0740",
              "late_canc_reason": ""
          }
      ]
  }
}